2nd_term/session_8/session_5/SN54ALS153/xmsim.log
xmsim(64): 23.03-s013: (c) Copyright 1995-2024 Cadence Design Systems, Inc.
TOOL:	xmsim(64)	23.03-s013: Started on Oct 18, 2024 at 09:14:27 KST
xmsim
    -MESS
    tb_SN54ALS153

Loading snapshot test_lib.tb_SN54ALS153:module .................... Done
xcelium> run
$time=10 ns in_A = x in_B = x in_C0 = x in_C1 = x in_C2 = x in_C3 = x in_D0 = x in_D1 = x in_D2 = x in_D3 = x in_G1 = 1 in_G2 = x out_1Y = 0 out_2Y = x
$time=20 ns in_A = 0 in_B = 0 in_C0 = 0 in_C1 = x in_C2 = x in_C3 = x in_D0 = x in_D1 = x in_D2 = x in_D3 = x in_G1 = 0 in_G2 = x out_1Y = 0 out_2Y = x
$time=30 ns in_A = 0 in_B = 0 in_C0 = 1 in_C1 = x in_C2 = x in_C3 = x in_D0 = x in_D1 = x in_D2 = x in_D3 = x in_G1 = 0 in_G2 = x out_1Y = 1 out_2Y = x
$time=40 ns in_A = 0 in_B = 1 in_C0 = 1 in_C1 = 0 in_C2 = x in_C3 = x in_D0 = x in_D1 = x in_D2 = x in_D3 = x in_G1 = 0 in_G2 = x out_1Y = 0 out_2Y = x
$time=50 ns in_A = 0 in_B = 1 in_C0 = 1 in_C1 = 1 in_C2 = x in_C3 = x in_D0 = x in_D1 = x in_D2 = x in_D3 = x in_G1 = 0 in_G2 = x out_1Y = 1 out_2Y = x
$time=60 ns in_A = 1 in_B = 0 in_C0 = 1 in_C1 = 1 in_C2 = 0 in_C3 = x in_D0 = x in_D1 = x in_D2 = x in_D3 = x in_G1 = 0 in_G2 = x out_1Y = 0 out_2Y = x
$time=70 ns in_A = 1 in_B = 0 in_C0 = 1 in_C1 = 1 in_C2 = 1 in_C3 = x in_D0 = x in_D1 = x in_D2 = x in_D3 = x in_G1 = 0 in_G2 = x out_1Y = 1 out_2Y = x
$time=80 ns in_A = 1 in_B = 1 in_C0 = 1 in_C1 = 1 in_C2 = 1 in_C3 = 0 in_D0 = x in_D1 = x in_D2 = x in_D3 = x in_G1 = 0 in_G2 = x out_1Y = 0 out_2Y = x
$time=90 ns in_A = 1 in_B = 1 in_C0 = 1 in_C1 = 1 in_C2 = 1 in_C3 = 1 in_D0 = x in_D1 = x in_D2 = x in_D3 = x in_G1 = 0 in_G2 = x out_1Y = 1 out_2Y = x
$time=100 ns in_A = 1 in_B = 1 in_C0 = 1 in_C1 = 1 in_C2 = 1 in_C3 = 1 in_D0 = x in_D1 = x in_D2 = x in_D3 = x in_G1 = 1 in_G2 = 1 out_1Y = 0 out_2Y = 0
$time=110 ns in_A = 0 in_B = 0 in_C0 = 1 in_C1 = 1 in_C2 = 1 in_C3 = 1 in_D0 = 0 in_D1 = x in_D2 = x in_D3 = x in_G1 = 1 in_G2 = 0 out_1Y = 0 out_2Y = 0
$time=120 ns in_A = 0 in_B = 0 in_C0 = 1 in_C1 = 1 in_C2 = 1 in_C3 = 1 in_D0 = 1 in_D1 = x in_D2 = x in_D3 = x in_G1 = 1 in_G2 = 0 out_1Y = 0 out_2Y = 1
$time=130 ns in_A = 0 in_B = 1 in_C0 = 1 in_C1 = 1 in_C2 = 1 in_C3 = 1 in_D0 = 1 in_D1 = 0 in_D2 = x in_D3 = x in_G1 = 1 in_G2 = 0 out_1Y = 0 out_2Y = 0
$time=140 ns in_A = 0 in_B = 1 in_C0 = 1 in_C1 = 1 in_C2 = 1 in_C3 = 1 in_D0 = 1 in_D1 = 1 in_D2 = x in_D3 = x in_G1 = 1 in_G2 = 0 out_1Y = 0 out_2Y = 1
$time=150 ns in_A = 1 in_B = 0 in_C0 = 1 in_C1 = 1 in_C2 = 1 in_C3 = 1 in_D0 = 1 in_D1 = 1 in_D2 = 0 in_D3 = x in_G1 = 1 in_G2 = 0 out_1Y = 0 out_2Y = 0
$time=160 ns in_A = 1 in_B = 0 in_C0 = 1 in_C1 = 1 in_C2 = 1 in_C3 = 1 in_D0 = 1 in_D1 = 1 in_D2 = 1 in_D3 = x in_G1 = 1 in_G2 = 0 out_1Y = 0 out_2Y = 1
$time=170 ns in_A = 1 in_B = 1 in_C0 = 1 in_C1 = 1 in_C2 = 1 in_C3 = 1 in_D0 = 1 in_D1 = 1 in_D2 = 1 in_D3 = 0 in_G1 = 1 in_G2 = 0 out_1Y = 0 out_2Y = 0
$time=180 ns in_A = 1 in_B = 1 in_C0 = 1 in_C1 = 1 in_C2 = 1 in_C3 = 1 in_D0 = 1 in_D1 = 1 in_D2 = 1 in_D3 = 1 in_G1 = 1 in_G2 = 0 out_1Y = 0 out_2Y = 1
Simulation complete via $finish(1) at time 210 NS + 0
./tb_SN54ALS153.v:62 	$finish;
xcelium> exit
TOOL:	xmsim(64)	23.03-s013: Exiting on Oct 18, 2024 at 09:14:28 KST  (total: 00:00:01)
